{
    "advanced_services": [
        "service_demand",
        "service_implemented",
        "service_pipeline",
        "DNS_Server",
        "web_Server",
        "mail_Server",
        "dhcp_Server",
        "routing_system",
        "switching_system",
        "ipv6_bgp_upstream",
        "ipv6_bgp_downstream",
        "ipv6_bgp_domestic",
        "ipv6_bgp_cdn",
        "upstram_peer_ipv4",
        "upstram_peer_ipv6",
        "parallei_peer_ipv4",
        "parallei_peer_ipv6",
        "downstream_peer_ipv4",
        "downstream_peer_ipv6",
        "ipv6_tein_upstream",
        "application_server_ipv4",
        "application_server_ipv6",
        "config_network_ipv6",
        "public_asn",
        "ipv4_24_blocks",
        "independent_ASN",
        "IPv6_Routed_ASN",
        "MANRS"
    ],
    "capacity_developments": [
        "NREN_Engineers_expert",
        "NREN_Engineers_intermediate",
        "NREN_Engineers_beginner",
        "Member_Institutes_expert",
        "Member_Institutes_intermediate",
        "Member_Institutes_beginner",
        "wp2andwp3_package",
        "efficacy_WP2_WP3_packages",
        "AsiaConnect_Financed_Training_International",
        "AsiaConnect_Financed_Training_National",
        "own_Financed_Training_International",
        "own_Financed_Training_National"
    ],
    "challenges_and_nren_adaptibilities": [
        "Internet_jan_2020",
        "Internet_feb_2020",
        "Internet_march_2020",
        "Internet_april_2020",
        "Internet_may_2020",
        "Internet_june_2020",
        "Internet_july_2020",
        "Internet_august_2020",
        "Internet_september_2020",
        "Internet_october_2020",
        "Internet_MRTG",
        "Research_Traffic_jan_2020",
        "Research_Traffic_feb_2020",
        "Research_Traffic_march_2020",
        "Research_Traffic_april_2020",
        "Research_Traffic_may_2020",
        "Research_Traffic_june_2020",
        "Research_Traffic_july_2020",
        "Research_Traffic_august_2020",
        "Research_Traffic_september_2020",
        "Research_Traffic_october_2020",
        "Research_Traffic_MRTG",
        "Impact_Revenue",
        "Major_Threat",
        "Big_Opportunities"
    ],
    "contacts": [
        "ad_con_name",
        "ad_con_designation",
        "ad_con_email",
        "ad_con_phone",
        "tec_con_name",
        "tec_con_designation",
        "tec_con_email",
        "tec_con_phone",
        "visi_con_name",
        "visi_con_designation",
        "visi_con_email",
        "visi_con_phone"
    ],
    "eduroam_services": [
        "eduroam",
        "Campus",
        "Access_Points",
        "Service_Location_Map",
        "F_ticks",
        "CAT",
        "govRoam",
        "eduRoam_Hotspot",
        "Authentications_NRS_National_2018",
        "Authentications_NRS_International_2018",
        "Authentications_NRS_National_2019",
        "Authentications_NRS_International_2019"
    ],
    "identityand_trust_services": [
        "Identity_and_Trust_Services",
        "Video_Collaboration",
        "Digital_Library",
        "Trusted_Digital_Certificate",
        "Big_File_Sender",
        "Cloud_Storage",
        "Laptop_Backup_Services",
        "Research_Repository",
        "Federation_architecture",
        "information_Federation_Services_IdPs",
        "information_Federation_Services_SPs"
    ],
    "initiativesof_t_e_i_n_c_c_s": [
        "efficacy_WP2_WP3_packages",
        "efficacy_WP4_WP5_packages",
        "satisfied_on_TEINCC",
        "strengths_of_TEINCC",
        "weaknesses_of_TEINCC",
        "opportunities_TEINCC",
        "looming_Threats_TEINCC"
    ],
    "landscape_and_market_shares": [
        "Institutions_category",
        "Institutions_connected_Universities",
        "Institutions_connected_RI",
        "Institutions_connected_govt",
        "Institutions_connected_school",
        "Institutions_connected_other",
        "Institutions_Target_Universities",
        "Institutions_Target_RI",
        "Institutions_Target_govt",
        "Institutions_Target_school",
        "Institutions_Target_other",
        "Institutions_Target_Universities_now",
        "Institutions_Target_RI_now",
        "Institutions_Target_govt_now",
        "Institutions_Target_school_now",
        "Institutions_Target_other_now",
        "user_Universities",
        "user_RI",
        "user_govt",
        "user_school",
        "user_other",
        "total_Universities",
        "lessthan_FE_Universities",
        "lessthan_FE_RI",
        "lessthan_FE_govt",
        "lessthan_FE_school",
        "lessthan_FE_other",
        "FE_Universities",
        "FE_RI",
        "FE_govt",
        "FE_school",
        "FE_other",
        "t1G_Universities",
        "t1G_RI",
        "t1G_govt",
        "t1G_school",
        "t1G_other",
        "t10G_Universities",
        "t10G_RI",
        "t10G_govt",
        "t10G_school",
        "t10G_other",
        "t40G_Universities",
        "t40G_RI",
        "t40G_govt",
        "t40G_school",
        "t40G_other",
        "hightest_throughput_Universities",
        "hightest_throughput_RI",
        "hightest_throughput_govt",
        "hightest_throughput_school",
        "hightest_throughput_other",
        "average_throughput_Universities",
        "average_throughput_RI",
        "average_throughput_govt",
        "average_throughput_school",
        "average_throughput_other"
    ],
    "network_infrastructure_dark_fibers": [
        "dark_fiber_domestic_usage",
        "dark_fiber_domestic_long",
        "dark_fiber_cross_border",
        "dark_fiber_cross_border_long",
        "Alien_Wave_technology",
        "offer_services_Alien_Wave_technology",
        "IP_Trunk",
        "aggregate_link_capacity",
        "sdn_pilot",
        "sdn_production",
        "sdn_tested",
        "sdn_planned",
        "sdn_not_planned",
        "NFV",
        "Server_Farm",
        "TLS",
        "spam_andfishing",
        "NGN_Firewall",
        "Sand_Boxing",
        "DDOS_Protection",
        "DPI"
    ],
    "network_trafficand_monitorings": [
        "type_of_traffic",
        "total_trafficfor_RE",
        "Upstream_commodity_2018",
        "Upstream_RE_2018",
        "Upstream_CDN_2018",
        "Upstream_IXP_2018",
        "Upstream_commodity_2019",
        "Upstream_RE_2019",
        "Upstream_CDN_2019",
        "Upstream_IXP_2019",
        "ratio_DU_commodity_traffic",
        "ratio_DU_research_traffic",
        "yearly_traffic_commodity",
        "yearly_traffic_RE",
        "yearly_traffic_CDN",
        "yearly_traffic_IXP",
        "MRTG_commodity",
        "MRTG_credentilas",
        "MRTG_ResearchTraffic",
        "MRTG_CreAccess",
        "MRTG_CDN",
        "MRTG_credentilas_2",
        "MRTG_domestic",
        "MRTG_credentilas_3",
        "ipv6_traffic",
        "ipv4_bgp_upstream_2018",
        "ipv4_bgp_downstream_2018",
        "ipv4_bgp_domestic_2018",
        "ipv4_bgp_cdn_2018",
        "ipv4_bgp_upstream_2019",
        "ipv4_bgp_downstream_2019",
        "ipv4_bgp_domestic_2019",
        "ipv4_bgp_cdn_2019",
        "upstream_non_outage",
        "upstream_outage",
        "downstream_non_outage",
        "downstream_outage",
        "network_diagram_url",
        "network_diagram_credentilas",
        "NOC",
        "tools_TMM",
        "statistical_data",
        "communication_way",
        "SLA",
        "option_of_compensation"
    ],
    "nren_supporting_tele_medicines": [
        "Supporting_Tele_medicine",
        "Challenges_Tele_medicine",
        "Mitigating_Steps_Tele_medicine",
        "step_supporting_CandV",
        "challenges_supporting_CandV",
        "Mitigating_Steps_CandV",
        "anyOther_support_services",
        "role_of_teincc",
        "Looming_Threat",
        "Future_Opportunity",
        "availing_opportunity_dampening",
        "CommentConductedSurvey"
    ],
    "n_r_e_nsupporting_online_educations": [
        "Video_Collaboration_Software",
        "NumberofVirtual_Classes_jan_2020",
        "NumberofVirtual_Classes_feb_2020",
        "NumberofVirtual_Classes_march_2020",
        "NumberofVirtual_Classes_april_2020",
        "NumberofVirtual_Classes_may_2020",
        "NumberofVirtual_Classes_june_2020",
        "NumberofVirtual_Classes_july_2020",
        "NumberofVirtual_Classes_august_2020",
        "NumberofVirtual_Classes_september_2020",
        "NumberofVirtual_Classes_october_2020",
        "NumberofVirtual_Classes_url",
        "Duration_Virtual_Classes_jan_2020",
        "Duration_Virtual_Classes_feb_2020",
        "Duration_Virtual_Classes_march_2020",
        "Duration_Virtual_Classes_april_2020",
        "Duration_Virtual_Classes_may_2020",
        "Duration_Virtual_Classes_june_2020",
        "Duration_Virtual_Classes_july_2020",
        "Duration_Virtual_Classes_august_2020",
        "Duration_Virtual_Classes_september_2020",
        "Duration_Virtual_Classes_october_2020",
        "Duration_Virtual_Classes_URL",
        "Total_Participants_VirtualClasses_jan_2020",
        "Total_Participants_VirtualClasses_feb_2020",
        "Total_Participants_VirtualClasses_march_2020",
        "Total_Participants_VirtualClasses_april_2020",
        "Total_Participants_VirtualClasses_may_2020",
        "Total_Participants_VirtualClasses_june_2020",
        "Total_Participants_VirtualClasses_july_2020",
        "Total_Participants_VirtualClasses_august_2020",
        "Total_Participants_VirtualClasses_september_2020",
        "Total_Participants_VirtualClasses_october_2020",
        "Total_Participants_VirtualClasses_URL",
        "Video_Collaboration_Software_run",
        "Domestic_Internet_Traffic",
        "DIT_maximum_IX_january",
        "DIT_maximum_IX_june",
        "Available_Software",
        "Maximum_Software",
        "quantity_available_Licenses",
        "Clients_VCA_institutes",
        "Clients_VCA_faculty",
        "Clients_VCA_student",
        "Challenges_faced_by_students",
        "Challenges_faced_by_faculty",
        "Challenges_faced_by_nren",
        "limitation_VCA",
        "lack_of_hardware",
        "high_bandwidth_cost",
        "confidence_assessment",
        "lack_lms_software",
        "support_24",
        "other_step"
    ],
    "promotion_researches": [
        "NREN_promotional_newsletter",
        "NREN_promotional_leaflets",
        "NREN_promotional_tender",
        "NREN_promotional_gift",
        "NREN_virtual_seminarTEIN_Sponsored",
        "NREN_physical_seminarTEIN_Sponsored",
        "NREN_virtual_seminar_NREN_Sponsored",
        "NREN_Physical_seminar_NREN_Sponsored",
        "number_registrants_apan47",
        "number_registrants_apan48",
        "communicationWithInstitutions"
    ],
    "research_and_education_collaborations": [
        "ResEdu_activities",
        "Title_of_Research",
        "research_url",
        "Abstract",
        "name_email_first_author",
        "scope",
        "Beneficiaries",
        "Financing",
        "NREN_contribute",
        "ResEdu_activities_other",
        "Title_of_Research_other",
        "research_url_other",
        "Abstract_other",
        "name_email_first_author_other",
        "scope_other",
        "Beneficiaries_other",
        "Financing_other",
        "NREN_contribute_other"
    ],
    "service_platforms": [
        "network_service_SO",
        "security_service_SO",
        "identity_service_SO",
        "collaboration_service_SO",
        "multimedia_service_SO",
        "storage_service_SO",
        "professional_service_SO",
        "flagship_1_61",
        "flagship_2_61",
        "flagship_3_61",
        "flagship_4_61",
        "flagship_5_61",
        "flagship_1_62",
        "flagship_2_62",
        "flagship_3_62",
        "flagship_4_62",
        "flagship_5_62"
    ],
    "structure_and_financings": [
        "Strapolicies",
        "emp_technical",
        "emp_non_technical",
        "emp_permanent",
        "emp_contract",
        "emp_outsourced",
        "emp_female_technical",
        "emp_fem_non_technical",
        "emp_fem_permanent",
        "emp_fem_contract",
        "emp_fem_outsourced",
        "capital_ownfund",
        "capital_government",
        "capital_donation",
        "capital_others",
        "operating_ownfund",
        "operating_government",
        "operating_donation",
        "operating_others",
        "distribute_netoperation",
        "distribute_netmaintenance",
        "distribute_administration",
        "distribute_other",
        "network_operation",
        "network_maintenance",
        "backbone_connectivity",
        "access_connectivity",
        "backbone_fiber",
        "access_fiber",
        "membership_fees",
        "bandwidth_service",
        "other_service"
    ]
}
